<?xml version="1.0" encoding="UTF-8" standalone="no"?>
<svg
   xmlns:dc="http://purl.org/dc/elements/1.1/"
   xmlns:cc="http://creativecommons.org/ns#"
   xmlns:rdf="http://www.w3.org/1999/02/22-rdf-syntax-ns#"
   xmlns:svg="http://www.w3.org/2000/svg"
   xmlns="http://www.w3.org/2000/svg"
   xmlns:sodipodi="http://sodipodi.sourceforge.net/DTD/sodipodi-0.dtd"
   xmlns:inkscape="http://www.inkscape.org/namespaces/inkscape"
   sodipodi:docname="marxon.svg"
   inkscape:version="1.0.2 (e86c870879, 2021-01-15)"
   id="svg8"
   version="1.1"
   viewBox="0 0 67.733333 67.733333"
   height="256"
   width="256">
  <defs
     id="defs2">
    <rect
       x="59.53125"
       y="72.760416"
       width="47.625"
       height="43.65625"
       id="rect843" />
    <rect
       x="6.6272948"
       y="9.7488974"
       width="43.280512"
       height="52.511376"
       id="rect57" />
    <rect
       x="56.520867"
       y="57.787032"
       width="18.472479"
       height="12.147468"
       id="rect47" />
  </defs>
  <sodipodi:namedview
     inkscape:window-maximized="1"
     inkscape:window-y="0"
     inkscape:window-x="7680"
     inkscape:window-height="2131"
     inkscape:window-width="3840"
     inkscape:pagecheckerboard="false"
     units="px"
     showgrid="true"
     inkscape:document-rotation="0"
     inkscape:current-layer="layer1"
     inkscape:document-units="px"
     inkscape:cy="128.39739"
     inkscape:cx="145.03335"
     inkscape:zoom="5.6"
     inkscape:pageshadow="2"
     inkscape:pageopacity="0"
     borderopacity="1.0"
     bordercolor="#666666"
     pagecolor="#1f0031"
     id="base">
    <inkscape:grid
       id="grid17"
       type="xygrid" />
  </sodipodi:namedview>
  <metadata
     id="metadata5">
    <rdf:RDF>
      <cc:Work
         rdf:about="">
        <dc:format>image/svg+xml</dc:format>
        <dc:type
           rdf:resource="http://purl.org/dc/dcmitype/StillImage" />
        <dc:title />
      </cc:Work>
    </rdf:RDF>
  </metadata>
  <g
     id="layer1"
     inkscape:groupmode="layer"
     inkscape:label="Calque 1">
    <text
       xml:space="preserve"
       style="font-style:normal;font-variant:normal;font-weight:normal;font-stretch:normal;font-size:63.5px;line-height:1.25;font-family:'CMU Typewriter Text';-inkscape-font-specification:'CMU Typewriter Text';letter-spacing:0px;word-spacing:0px;writing-mode:lr-tb;fill:#18f018;fill-opacity:1;stroke:none;stroke-width:0.264583"
       x="-4.3158016"
       y="53.190823"
       id="text31"><tspan
         sodipodi:role="line"
         id="tspan29"
         x="-4.3158016"
         y="53.190823"
         style="font-style:normal;font-variant:normal;font-weight:normal;font-stretch:normal;font-size:63.5px;font-family:Hack;-inkscape-font-specification:Hack;writing-mode:lr-tb;fill:#18f018;stroke-width:0.264583">$c</tspan></text>
    <text
       xml:space="preserve"
       id="text45"
       style="font-style:normal;font-weight:normal;font-size:10.5833px;line-height:1.25;font-family:sans-serif;letter-spacing:0px;word-spacing:0px;writing-mode:vertical-lr;white-space:pre;shape-inside:url(#rect47);fill:#000000;fill-opacity:1;stroke:none;" />
    <text
       xml:space="preserve"
       id="text55"
       style="font-style:normal;font-weight:normal;font-size:10.5833px;line-height:1.25;font-family:sans-serif;letter-spacing:0px;word-spacing:0px;writing-mode:vertical-lr;white-space:pre;shape-inside:url(#rect57);fill:#000000;fill-opacity:1;stroke:none;" />
    <text
       xml:space="preserve"
       id="text841"
       style="font-size:10.5833px;line-height:1.25;font-family:sans-serif;text-align:center;letter-spacing:0px;word-spacing:0px;writing-mode:vertical-lr;white-space:pre;shape-inside:url(#rect843)" />
  </g>
</svg>
